…
A candidate tidy organisation of the data is below. Each row is an origin-destination pair for a weekday or weekend, and each variable describes:

* `o_station`: station id  of the origin station
* `d_station`: station id of the destination station
* `wkday`: identifies whether the OD pair describes weekday or weekend ny_trips
* `count`: count of trips recorded for that observation (OD pair and weekday/weekend)
* `dist`: total distance (cumulative) in kms of all trips recorded for that observation (OD pair and weekday/weekend)
* `duration`: total duration in minutes (cumulative) of all trips recorded for that observation (OD pair and weekday/weekend)

{{% callout note %}}
You may wish to start with reorganising `ny_spread_rows` as I deliberately made `ny_spread_columns` quite challenging. The intention here was to replicate the sorts of arduous data formatting operations that need to be performed when working with real datasets. As always there are different approaches to this, but it can be achieved with use of `pivot_longer`, `pivot_wider`, plus a call to `separate()`. This may be one to post to the course Slack.
{{% /callout %}}

```
## # A tibble: 386,762 x 6
##    o_station d_station wkday   count  dist duration
##        <int>     <int> <chr>   <int> <dbl>    <dbl>
##  1        72       116 weekend     1  1.15     18.2
##  2        72       127 weekend    10 18.0     339.
##  3        72       128 weekend     2  3.18     69.6
##  4        72       146 weekend    12 27.6     402.
##  5        72       151 weekend     2  2.87     54.9
##  6        72       161 weekend     2  2.52     64.8
##  7        72       164 weekend     5 13.3      73.3
##  8        72       167 weekend     1  2.07     17.2
##  9        72       168 weekend     2  1.70     42.7
## 10        72       173 weekend     9  9.59    194.
## # … with 386,752 more rows
```
…
